%YAML 1.1
%TAG !u! tag:unity3d.com,2011:
--- !u!114 &11400000
MonoBehaviour:
  m_ObjectHideFlags: 0
  m_CorrespondingSourceObject: {fileID: 0}
  m_PrefabInstance: {fileID: 0}
  m_PrefabAsset: {fileID: 0}
  m_GameObject: {fileID: 0}
  m_Enabled: 1
  m_EditorHideFlags: 0
  m_Script: {fileID: 11500000, guid: d38226fd7b1d37a44bac30f795a856b6, type: 3}
  m_Name: Blue
  m_EditorClassIdentifier: 
  _id: 2
  _fractionName: Blue
  _color: {r: 0, g: 0.011662006, b: 1, a: 1}
